# Source
# Moderators:  center size  distribution files  time
# Temp. col shape x y z wid|dia hei spaord tot_flux curr w-file t-file wt-file  Mod tau_a tau_d
200 0 R 0.0 0.0 0.0 0.2 0.2 0 1.0e13 0 none none none 0 0.0 0.0 
